<?xml version="1.0" encoding="UTF-8"?>
<svg width="197px" height="196px" viewBox="0 0 197 196" version="1.1" xmlns="http://www.w3.org/2000/svg" xmlns:xlink="http://www.w3.org/1999/xlink" xmlns:sketch="http://www.bohemiancoding.com/sketch/ns">
    <!-- Generator: Sketch 3.3.3 (12072) - http://www.bohemiancoding.com/sketch -->
    <title>002-twitter</title>
    <desc>Created with Sketch.</desc>
    <defs></defs>
    <g id="Page-1" stroke="none" stroke-width="1" fill="none" fill-rule="evenodd" sketch:type="MSPage">
        <g id="002-twitter" sketch:type="MSLayerGroup" fill="#FFFFFF">
            <path d="M99,0 C59.3,0 23.6,23.9 8.4,60.5 C-6.8,97.1 1.6,139.3 29.6,167.3 C57.6,195.3 99.8,203.7 136.4,188.5 C173,173.3 196.9,137.6 196.9,98 C197,43.9 153.1,0 99,0 L99,0 L99,0 Z M147.8,68.3 C145.5,71.8 142.7,74.9 139.4,77.5 C138.6,78.2 138.1,79.2 138.1,80.3 L138.1,80.6 C138.1,87.6 136.8,94.5 134.3,101.1 C131.8,108 128,114.3 123.1,119.8 C116.6,127.2 108.3,132.7 98.9,135.8 C92.8,137.8 86.3,138.8 79.9,138.8 C69.7,138.8 59.6,136.1 50.8,130.9 C50.1,130.5 49.8,129.8 50,129 C50.2,128.3 50.8,127.8 51.6,127.8 L54,127.8 C61.8,127.8 69.4,125.5 75.8,121.2 C68,119.9 61.5,114.4 59,106.8 C58.7,106 59.5,105.2 60.3,105.4 C61.5,105.6 62.7,105.7 63.9,105.7 L64.4,105.7 C56.8,102.2 52,94.6 52.1,86.2 C52.1,85.4 53,84.8 53.7,85.2 C55.2,86 56.8,86.7 58.5,87.1 C51.6,80.3 50.2,69.8 55.1,61.4 C55.5,60.7 56.4,60.7 56.9,61.3 C66.4,73 80.1,80.3 95,81.6 L95.1,81.6 C95.6,81.6 95.9,81.2 95.9,80.7 C95.6,78.1 95.8,75.5 96.4,73 C98.1,66 103.3,60.4 110.2,58.2 C112.4,57.5 114.6,57.2 116.9,57.2 C122,57.2 127,59.1 130.9,62.5 C131.4,62.9 132,63.2 132.7,63.2 C132.9,63.2 133.1,63.2 133.3,63.1 C136.9,62.2 140.4,60.7 143.6,58.8 C144.5,58.3 145.5,59.1 145.2,60.1 C144.1,63.5 142.2,66.5 139.6,69 C141.9,68.5 144.2,67.7 146.4,66.7 C147.4,66.4 148.3,67.4 147.8,68.3 L147.8,68.3 L147.8,68.3 Z" id="Shape" sketch:type="MSShapeGroup"></path>
        </g>
    </g>
</svg>